{
    "total_results": 5000,
    "total_pages": 167,
    "page": 1,
    "image_set_count": 21,
    "sets": [
        {
            "id": 70894386,
            "url": "/70894386/spanish-numbers-1-100-flash-cards/",
            "title": "Spanish Numbers 1-100",
            "created_by": "Abaluka8",
            "term_count": 41,
            "created_date": 1423671265,
            "modified_date": 1434668086,
            "published_date": 1423671265,
            "has_images": true,
            "subjects": [

            ],
            "visibility": "public",
            "editable": "only_me",
            "has_access": true,
            "can_edit": false,
            "description": "Spanish Numbers up to 10.\nSpanish Numbers up to 20.\nSpanish Numbers up to 30.\nSpanish Numbers (by tens) up to 100.\nSpanish Numbers (by hundreds) up to 1000.\nSpanish Number 1,000,000,000",
            "lang_terms": "es",
            "lang_definitions": "en",
            "password_use": 0,
            "password_edit": 0,
            "access_type": 2,
            "creator_id": 7650959
        },
        {
            "id": 72789727,
            "url": "/72789727/spanish-flash-cards/",
            "title": "SPANISH",
            "created_by": "SAS_",
            "term_count": 21,
            "created_date": 1424893371,
            "modified_date": 1424975946,
            "published_date": 1424893756,
            "has_images": true,
            "subjects": [

            ],
            "visibility": "public",
            "editable": "only_me",
            "has_access": true,
            "can_edit": false,
            "description": "21 words that are cognates in spanish",
            "lang_terms": "es",
            "lang_definitions": "en",
            "password_use": 0,
            "password_edit": 0,
            "access_type": 2,
            "creator_id": 21699746
        },
        {
            "id": 31877011,
            "url": "/31877011/spanish-2-verb-list-flash-cards/",
            "title": "Spanish 2 - Verb List",
            "created_by": "ashliekmiller",
            "term_count": 51,
            "created_date": 1386295870,
            "modified_date": 1407447906,
            "published_date": 1386295870,
            "has_images": true,
            "subjects": [

            ],
            "visibility": "public",
            "editable": "password",
            "has_access": true,
            "can_edit": false,
            "description": "All Spanish 2 verbs with definitions in their infinitive forms.",
            "lang_terms": "es",
            "lang_definitions": "en",
            "password_use": 0,
            "password_edit": 1,
            "access_type": 2,
            "creator_id": 10565506
        },
        {
            "id": 18086061,
            "url": "/18086061/spanish-adjectives-iv-colors-numbers-flash-cards/",
            "title": "Spanish Adjectives IV (colors & numbers)",
            "created_by": "GPSstudent123",
            "term_count": 22,
            "created_date": 1357488170,
            "modified_date": 1436218928,
            "published_date": 1357488170,
            "has_images": true,
            "subjects": [

            ],
            "visibility": "public",
            "editable": "only_me",
            "has_access": true,
            "can_edit": false,
            "description": "Set four of Spanish adjectives.",
            "lang_terms": "es",
            "lang_definitions": "en",
            "password_use": 0,
            "password_edit": 0,
            "access_type": 2,
            "creator_id": 4597680
        },
        {
            "id": 71312807,
            "url": "/71312807/spanish-numbers-0-100-flash-cards/",
            "title": "Spanish Numbers 0-100",
            "created_by": "lydialgrier",
            "term_count": 38,
            "created_date": 1423855215,
            "modified_date": 1423855388,
            "published_date": 1423855215,
            "has_images": true,
            "subjects": [

            ],
            "visibility": "public",
            "editable": "only_me",
            "has_access": true,
            "can_edit": false,
            "description": "Spanish Numbers up to 10.\nSpanish Numbers up to 20.\nSpanish Numbers up to 30.\nSpanish Numbers (by tens) up to 100.\nSpanish Numbers (by hundreds) up to 1000.\nSpanish Number 1,000,000,000",
            "lang_terms": "es",
            "lang_definitions": "en",
            "password_use": 0,
            "password_edit": 0,
            "access_type": 2,
            "creator_id": 21130224
        },
        {
            "id": 26247569,
            "url": "/26247569/basic-spanish-how-are-you-flash-cards/",
            "title": "Basic Spanish - How are you?",
            "created_by": "Grapepickers",
            "term_count": 24,
            "created_date": 1379284692,
            "modified_date": 1379284967,
            "published_date": 1379284692,
            "has_images": true,
            "subjects": [

            ],
            "visibility": "public",
            "editable": "only_me",
            "has_access": true,
            "can_edit": false,
            "description": "",
            "lang_terms": "es",
            "lang_definitions": "en",
            "password_use": 0,
            "password_edit": 0,
            "access_type": 2,
            "creator_id": 7881639
        },
        {
            "id": 9548807,
            "url": "/9548807/spanish-time-flash-cards/",
            "title": "Spanish time",
            "created_by": "robertberrios",
            "term_count": 20,
            "created_date": 1327872731,
            "modified_date": 1413806201,
            "published_date": 1327872731,
            "has_images": true,
            "subjects": [

            ],
            "visibility": "public",
            "editable": "only_me",
            "has_access": true,
            "can_edit": false,
            "description": "",
            "lang_terms": "es",
            "lang_definitions": "photo",
            "password_use": 0,
            "password_edit": 0,
            "access_type": 2,
            "creator_id": 2539699
        },
        {
            "id": 67010234,
            "url": "/67010234/spanish-family-vocab-flash-cards/",
            "title": "Spanish Family Vocab",
            "created_by": "spedteachers",
            "term_count": 17,
            "created_date": 1421759166,
            "modified_date": 1421760024,
            "published_date": 1421760024,
            "has_images": true,
            "subjects": [

            ],
            "visibility": "public",
            "editable": "only_me",
            "has_access": true,
            "can_edit": false,
            "description": "",
            "lang_terms": "es",
            "lang_definitions": "en",
            "password_use": 0,
            "password_edit": 0,
            "access_type": 2,
            "creator_id": 10241794
        },
        {
            "id": 44917345,
            "url": "/44917345/realidades-spanish-ii-chapter-5a-vocabulary-flash-cards/",
            "title": "Realidades Spanish II Chapter 5A Vocabulary",
            "created_by": "ricomo",
            "term_count": 50,
            "created_date": 1403715744,
            "modified_date": 1421179636,
            "published_date": 1403715744,
            "has_images": true,
            "subjects": [

            ],
            "visibility": "public",
            "editable": "only_me",
            "has_access": true,
            "can_edit": false,
            "description": "Realidades Spanish II Chapter 5A Vocabulary",
            "lang_terms": "es",
            "lang_definitions": "es",
            "password_use": 0,
            "password_edit": 0,
            "access_type": 2,
            "creator_id": 13909783
        },
        {
            "id": 26229598,
            "url": "/26229598/9th-grade-spanish-body-parts-mrhs-flash-cards/",
            "title": "9th grade spanish- body parts mrhs",
            "created_by": "marleneluciano",
            "term_count": 10,
            "created_date": 1379268419,
            "modified_date": 1379268419,
            "published_date": 1379268419,
            "has_images": true,
            "subjects": [

            ],
            "visibility": "public",
            "editable": "only_me",
            "has_access": true,
            "can_edit": false,
            "description": "body parts",
            "lang_terms": "en",
            "lang_definitions": "en",
            "password_use": 0,
            "password_edit": 0,
            "access_type": 2,
            "creator_id": 1097255
        },
        {
            "id": 66471053,
            "url": "/66471053/karraker-spanish-i-activities-flash-cards/",
            "title": "Karraker Spanish I activities",
            "created_by": "ckarraker",
            "term_count": 33,
            "created_date": 1421346852,
            "modified_date": 1421347000,
            "published_date": 1421346852,
            "has_images": true,
            "subjects": [

            ],
            "visibility": "public",
            "editable": "only_me",
            "has_access": true,
            "can_edit": false,
            "description": "Las actividades: \u00bfQu\u00e9 te gusta hacer?",
            "lang_terms": "es",
            "lang_definitions": "en",
            "password_use": 0,
            "password_edit": 0,
            "access_type": 2,
            "creator_id": 12266001
        },
        {
            "id": 11965980,
            "url": "/11965980/spanish-pham-clothing-flash-cards/",
            "title": "SPANISH PHAM - Clothing",
            "created_by": "saa",
            "term_count": 47,
            "created_date": 1336494802,
            "modified_date": 1412541978,
            "published_date": 1336494802,
            "has_images": true,
            "subjects": [

            ],
            "visibility": "public",
            "editable": "only_me",
            "has_access": true,
            "can_edit": false,
            "description": "Single words",
            "lang_terms": "es",
            "lang_definitions": "en",
            "password_use": 0,
            "password_edit": 0,
            "access_type": 2,
            "creator_id": 1641234
        },
        {
            "id": 23027819,
            "url": "/23027819/spanish-1-unit-8-clothing-only-looking-good-me-veo-bien-nnps-flash-cards/",
            "title": "Spanish 1, Unit 8, clothing only, Looking Good! \u00a1Me veo bien! NNPS",
            "created_by": "wendy_stuck",
            "term_count": 19,
            "created_date": 1367882059,
            "modified_date": 1396979978,
            "published_date": 1367882059,
            "has_images": true,
            "subjects": [

            ],
            "visibility": "public",
            "editable": "only_me",
            "has_access": true,
            "can_edit": false,
            "description": "Spanish 1, Unit 8, Looking Good! \u00a1Me veo bien! NNPS",
            "lang_terms": "en",
            "lang_definitions": "es",
            "password_use": 0,
            "password_edit": 0,
            "access_type": 2,
            "creator_id": 4471136
        },
        {
            "id": 64446601,
            "url": "/64446601/spanish-sports-flash-cards/",
            "title": "Spanish Sports",
            "created_by": "johndemler",
            "term_count": 16,
            "created_date": 1419251463,
            "modified_date": 1420459486,
            "published_date": 1419251463,
            "has_images": true,
            "subjects": [

            ],
            "visibility": "public",
            "editable": "only_me",
            "has_access": true,
            "can_edit": false,
            "description": "",
            "lang_terms": "es",
            "lang_definitions": "en",
            "password_use": 0,
            "password_edit": 0,
            "access_type": 2,
            "creator_id": 1545903
        },
        {
            "id": 9072054,
            "url": "/9072054/pham-spanish-fruits-and-vegetables-flash-cards/",
            "title": "PHAM- SPANISH- Fruits and Vegetables",
            "created_by": "saa",
            "term_count": 34,
            "created_date": 1326223452,
            "modified_date": 1388786978,
            "published_date": 1326223452,
            "has_images": true,
            "subjects": [

            ],
            "visibility": "public",
            "editable": "only_me",
            "has_access": true,
            "can_edit": false,
            "description": "Frutas y Verduras",
            "lang_terms": "es",
            "lang_definitions": "photo",
            "password_use": 0,
            "password_edit": 0,
            "access_type": 2,
            "creator_id": 1641234
        },
        {
            "id": 48839554,
            "url": "/48839554/spanish-1-verbs-definitions-flash-cards/",
            "title": "Spanish 1 VERBS - definitions",
            "created_by": "rebhein",
            "term_count": 56,
            "created_date": 1410746428,
            "modified_date": 1420517354,
            "published_date": 1410746428,
            "has_images": true,
            "subjects": [

            ],
            "visibility": "public",
            "editable": "only_me",
            "has_access": true,
            "can_edit": false,
            "description": "Ongoing list of meanings for verbs learned in Spanish 1",
            "lang_terms": "en",
            "lang_definitions": "es",
            "password_use": 0,
            "password_edit": 0,
            "access_type": 2,
            "creator_id": 14583727
        },
        {
            "id": 38850643,
            "url": "/38850643/11-reflexive-verbs-conjugated-engspanish-flash-cards/",
            "title": "11 Reflexive Verbs conjugated eng/spanish",
            "created_by": "Annette_Valente",
            "term_count": 82,
            "created_date": 1395150713,
            "modified_date": 1411067677,
            "published_date": 1395150713,
            "has_images": false,
            "subjects": [

            ],
            "visibility": "public",
            "editable": "only_me",
            "has_access": true,
            "can_edit": false,
            "description": "Reflexive verbs in Spanish\nRemember, to conjugate reflexive verbs you need Reflexive Pronouns, which I included in this set. To conjugate reflexive verbs, you need to move the \"se\" at the end of the reflexive verb and move it to the front. Then you need to change it to Me/Te/Se/Nos/Os/Se depending on the subject.\nHowever, if your reflexive verb is following a verb, you need to keep the \"se\" at the end of the reflexive verb and then change it to the form you need.",
            "lang_terms": "es",
            "lang_definitions": "en",
            "password_use": 0,
            "password_edit": 0,
            "access_type": 2,
            "creator_id": 9207231
        },
        {
            "id": 5658430,
            "url": "/5658430/preterite-spanish-flash-cards/",
            "title": "Preterite - Spanish",
            "created_by": "ProfesoraTurner",
            "term_count": 62,
            "created_date": 1306165650,
            "modified_date": 1306174055,
            "published_date": 1306165650,
            "has_images": false,
            "subjects": [

            ],
            "visibility": "public",
            "editable": "only_me",
            "has_access": true,
            "can_edit": false,
            "description": "Preterite - Spanish",
            "lang_terms": "en",
            "lang_definitions": "en",
            "password_use": 0,
            "password_edit": 0,
            "access_type": 2,
            "creator_id": 1543252
        },
        {
            "id": 71753323,
            "url": "/71753323/spanish-weather-flash-cards/",
            "title": "Spanish Weather",
            "created_by": "johndemler",
            "term_count": 13,
            "created_date": 1424261985,
            "modified_date": 1424262968,
            "published_date": 1424262375,
            "has_images": true,
            "subjects": [

            ],
            "visibility": "public",
            "editable": "only_me",
            "has_access": true,
            "can_edit": false,
            "description": "",
            "lang_terms": "es",
            "lang_definitions": "en",
            "password_use": 0,
            "password_edit": 0,
            "access_type": 2,
            "creator_id": 1545903
        },
        {
            "id": 77274473,
            "url": "/77274473/spanish-shopping-flash-cards/",
            "title": "Spanish Shopping",
            "created_by": "johndemler",
            "term_count": 13,
            "created_date": 1427801737,
            "modified_date": 1428492675,
            "published_date": 1427802200,
            "has_images": true,
            "subjects": [

            ],
            "visibility": "public",
            "editable": "only_me",
            "has_access": true,
            "can_edit": false,
            "description": "",
            "lang_terms": "es",
            "lang_definitions": "en",
            "password_use": 0,
            "password_edit": 0,
            "access_type": 2,
            "creator_id": 1545903
        },
        {
            "id": 8965030,
            "url": "/8965030/spanish-pham-gustar-frutas-y-verduras-flash-cards/",
            "title": "SPANISH PHAM GUSTAR - Frutas y verduras",
            "created_by": "saa",
            "term_count": 46,
            "created_date": 1325782060,
            "modified_date": 1412604271,
            "published_date": 1325782060,
            "has_images": true,
            "subjects": [

            ],
            "visibility": "public",
            "editable": "only_me",
            "has_access": true,
            "can_edit": false,
            "description": "Vocabulary - Fruits and vegetables\nGrammar - Syntax with GUSTAR - Expressing likes and dislikes",
            "lang_terms": "es",
            "lang_definitions": "en",
            "password_use": 0,
            "password_edit": 0,
            "access_type": 2,
            "creator_id": 1641234
        },
        {
            "id": 9418745,
            "url": "/9418745/spanish-body-parts-flash-cards/",
            "title": "Spanish Body parts",
            "created_by": "extremepartyrocker",
            "term_count": 25,
            "created_date": 1327425959,
            "modified_date": 1407447906,
            "published_date": 1327425959,
            "has_images": false,
            "subjects": [

            ],
            "visibility": "public",
            "editable": "password",
            "has_access": true,
            "can_edit": false,
            "description": "bodyparts in spanish",
            "lang_terms": "en",
            "lang_definitions": "es",
            "password_use": 0,
            "password_edit": 1,
            "access_type": 2,
            "creator_id": 3030746
        },
        {
            "id": 11924494,
            "url": "/11924494/spanish-8-unit-9a-flash-cards/",
            "title": "Spanish 8 Unit 9A",
            "created_by": "mrsquinnatjfk",
            "term_count": 49,
            "created_date": 1336397108,
            "modified_date": 1399641109,
            "published_date": 1336397108,
            "has_images": false,
            "subjects": [

            ],
            "visibility": "public",
            "editable": "only_me",
            "has_access": true,
            "can_edit": false,
            "description": "Mrs. Quinn\nJFK Spanish period 8",
            "lang_terms": "en",
            "lang_definitions": "es",
            "password_use": 0,
            "password_edit": 0,
            "access_type": 2,
            "creator_id": 2898559
        },
        {
            "id": 510367,
            "url": "/510367/52-spanish-weather-forecast-flash-cards/",
            "title": "5.2 Spanish Weather Forecast",
            "created_by": "sragoff",
            "term_count": 37,
            "created_date": 1226090691,
            "modified_date": 1398187464,
            "published_date": 1226090691,
            "has_images": false,
            "subjects": [

            ],
            "visibility": "public",
            "editable": "only_me",
            "has_access": true,
            "can_edit": false,
            "description": "Vocabulary to help create a Spanish Weather Forecast in your Spanish Class.",
            "lang_terms": "es",
            "lang_definitions": "en",
            "password_use": 0,
            "password_edit": 0,
            "access_type": 2,
            "creator_id": 301421
        },
        {
            "id": 27585335,
            "url": "/27585335/spanish-numbers-1-100-flash-cards/",
            "title": "Spanish Numbers 1-100",
            "created_by": "Almazan",
            "term_count": 100,
            "created_date": 1380831671,
            "modified_date": 1380831671,
            "published_date": 1380831671,
            "has_images": false,
            "subjects": [

            ],
            "visibility": "public",
            "editable": "only_me",
            "has_access": true,
            "can_edit": false,
            "description": "Spanish Numbers 1-100",
            "lang_terms": "es",
            "lang_definitions": "en",
            "password_use": 0,
            "password_edit": 0,
            "access_type": 2,
            "creator_id": 8355039
        },
        {
            "id": 21018213,
            "url": "/21018213/spanish-food-flash-cards/",
            "title": "spanish food",
            "created_by": "kayleigh1973",
            "term_count": 43,
            "created_date": 1363349629,
            "modified_date": 1363349629,
            "published_date": 1363349629,
            "has_images": true,
            "subjects": [

            ],
            "visibility": "public",
            "editable": "only_me",
            "has_access": true,
            "can_edit": false,
            "description": "43 Spanish vocabulary words combining Food-General, Food-Fruit, Food-Veggie, and Food-Meat",
            "lang_terms": "es",
            "lang_definitions": "en",
            "password_use": 0,
            "password_edit": 0,
            "access_type": 2,
            "creator_id": 6751720
        },
        {
            "id": 25428434,
            "url": "/25428434/groceries-spanish-flash-cards/",
            "title": "Groceries - Spanish",
            "created_by": "TheLanguageProfessor",
            "term_count": 20,
            "created_date": 1377832335,
            "modified_date": 1377832335,
            "published_date": 1377832335,
            "has_images": false,
            "subjects": [

            ],
            "visibility": "public",
            "editable": "only_me",
            "has_access": true,
            "can_edit": false,
            "description": "World Language Spanish",
            "lang_terms": "es",
            "lang_definitions": "en",
            "password_use": 0,
            "password_edit": 0,
            "access_type": 2,
            "creator_id": 7322305
        },
        {
            "id": 76130790,
            "url": "/76130790/spanish-verb-infinitives-ar-er-ir-complete-list-flash-cards/",
            "title": "Spanish Verb Infinitives -- -AR -ER -IR Complete List",
            "created_by": "janiceribeiro",
            "term_count": 66,
            "created_date": 1427055575,
            "modified_date": 1436638184,
            "published_date": 1427055575,
            "has_images": true,
            "subjects": [

            ],
            "visibility": "public",
            "editable": "only_me",
            "has_access": true,
            "can_edit": false,
            "description": "The words characterizing the present indicative tense are do, does, am, are, and is.\nIn Spanish, verbs are conjugated to show mood, tense, person, and number. Most verb conjugations follow a regular pattern. Verbs that do not follow the patterns are irregular and you must memorize them. Even these irregular verbs are not irregular in all tenses.\nVerbs in Spanish are easily identified because they end in either ar, er, or ir.\nAll conjugations and tenses are formed using the stem of the infinitive, that is, the part BEFORE the ar, er, or ir him. Those with an er ending are second conjugation verbs.\nTo form the present indicative terms, dropping the infinitive ending (ar, er or ir) to get the stem, or radical. Then attach the proper endings are shown below for the first, second, and third conjugation verbs.",
            "lang_terms": "es",
            "lang_definitions": "en",
            "password_use": 0,
            "password_edit": 0,
            "access_type": 2,
            "creator_id": 14263
        },
        {
            "id": 27264190,
            "url": "/27264190/telling-time-in-spanish-flash-cards/",
            "title": "Telling Time in Spanish",
            "created_by": "dwilliamson_lhsi_org",
            "term_count": 31,
            "created_date": 1380536039,
            "modified_date": 1380545550,
            "published_date": 1380536039,
            "has_images": false,
            "subjects": [

            ],
            "visibility": "public",
            "editable": "only_me",
            "has_access": true,
            "can_edit": false,
            "description": "Use these basic phrases & time expressions to practice telling time in Spanish.",
            "lang_terms": "es",
            "lang_definitions": "en",
            "password_use": 0,
            "password_edit": 0,
            "access_type": 2,
            "creator_id": 2417553
        },
        {
            "id": 5660714,
            "url": "/5660714/irregular-preterites-spanish-flash-cards/",
            "title": "Irregular Preterites - Spanish",
            "created_by": "ProfesoraTurner",
            "term_count": 60,
            "created_date": 1306175594,
            "modified_date": 1306175594,
            "published_date": 1306175594,
            "has_images": false,
            "subjects": [

            ],
            "visibility": "public",
            "editable": "only_me",
            "has_access": true,
            "can_edit": false,
            "description": "ir\nser\ntener\nhacer\nirregular preterites - Spanish",
            "lang_terms": "es",
            "lang_definitions": "en",
            "password_use": 0,
            "password_edit": 0,
            "access_type": 2,
            "creator_id": 1543252
        }
    ]
}